  0
SECTION
  2
HEADER
  9
$ACADVER
  1
AC1014
  9
$HANDSEED
  5
FFFF
  9
$MEASUREMENT
 70
     1
  0
ENDSEC
  0
SECTION
  2
TABLES
  0
TABLE
  2
VPORT
  5
8
330
0
100
AcDbSymbolTable
 70
     4
  0
VPORT
  5
2E
330
8
100
AcDbSymbolTableRecord
100
AcDbViewportTableRecord
  2
*ACTIVE
 70
     0
 10
0.0
 20
0.0
 11
1.0
 21
1.0
 12
210.0
 22
148.5
 13
0.0
 23
0.0
 14
10.0
 24
10.0
 15
10.0
 25
10.0
 16
0.0
 26
0.0
 36
1.0
 17
0.0
 27
0.0
 37
0.0
 40
341.0
 41
1.24
 42
50.0
 43
0.0
 44
0.0
 50
0.0
 51
0.0
 71
     0
 72
   100
 73
     1
 74
     3
 75
     0
 76
     0
 77
     0
 78
     0
  0
ENDTAB
  0
TABLE
  2
LTYPE
  5
5
330
0
100
AcDbSymbolTable
 70
     1
  0
LTYPE
  5
14
330
5
100
AcDbSymbolTableRecord
100
AcDbLinetypeTableRecord
  2
BYBLOCK
 70
     0
  3

 72
    65
 73
     0
 40
0.0
  0
LTYPE
  5
15
330
5
100
AcDbSymbolTableRecord
100
AcDbLinetypeTableRecord
  2
BYLAYER
 70
     0
  3

 72
    65
 73
     0
 40
0.0
  0
LTYPE
  5
16
330
5
100
AcDbSymbolTableRecord
100
AcDbLinetypeTableRecord
  2
CONTINUOUS
 70
     0
  3
Solid line
 72
    65
 73
     0
 40
0.0
  0
ENDTAB
  0
TABLE
  2
LAYER
  5
2
100
AcDbSymbolTable
 70
2
  0
LAYER
  5
50
100
AcDbSymbolTableRecord
100
AcDbLayerTableRecord
  2
0
 70
0
  6
CONTINUOUS
  0
LAYER
  5
51
100
AcDbSymbolTableRecord
100
AcDbLayerTableRecord
  2
Image
 70
0
  6
CONTINUOUS
  0
ENDTAB
  0
TABLE
  2
STYLE
  5
3
330
0
100
AcDbSymbolTable
 70
     1
  0
STYLE
  5
11
330
3
100
AcDbSymbolTableRecord
100
AcDbTextStyleTableRecord
  2
STANDARD
 70
     0
 40
0.0
 41
1.0
 50
0.0
 71
     0
 42
2.5
  3
txt
  4

  0
ENDTAB
  0
TABLE
  2
VIEW
  5
6
330
0
100
AcDbSymbolTable
 70
     0
  0
ENDTAB
  0
TABLE
  2
UCS
  5
7
330
0
100
AcDbSymbolTable
 70
     0
  0
ENDTAB
  0
TABLE
  2
APPID
  5
9
330
0
100
AcDbSymbolTable
 70
     2
  0
APPID
  5
12
330
9
100
AcDbSymbolTableRecord
100
AcDbRegAppTableRecord
  2
ACAD
 70
     0
  0
ENDTAB
  0
TABLE
  2
DIMSTYLE
  5
A
330
0
100
AcDbSymbolTable
 70
     1
  0
DIMSTYLE
105
27
330
A
100
AcDbSymbolTableRecord
100
AcDbDimStyleTableRecord
  2
ISO-25
 70
     0
  3

  4

  5

  6

  7

 40
1.0
 41
2.5
 42
0.625
 43
3.75
 44
1.25
 45
0.0
 46
0.0
 47
0.0
 48
0.0
140
2.5
141
2.5
142
0.0
143
0.03937007874016
144
1.0
145
0.0
146
1.0
147
0.625
 71
     0
 72
     0
 73
     0
 74
     0
 75
     0
 76
     0
 77
     1
 78
     8
170
     0
171
     3
172
     1
173
     0
174
     0
175
     0
176
     0
177
     0
178
     0
270
     2
271
     2
272
     2
273
     2
274
     3
340
11
275
     0
280
     0
281
     0
282
     0
283
     0
284
     8
285
     0
286
     0
287
     3
288
     0
  0
ENDTAB
  0
TABLE
  2
BLOCK_RECORD
  5
1
330
0
100
AcDbSymbolTable
 70
     1
  0
BLOCK_RECORD
  5
1F
330
1
100
AcDbSymbolTableRecord
100
AcDbBlockTableRecord
  2
*MODEL_SPACE
  0
BLOCK_RECORD
  5
1B
330
1
100
AcDbSymbolTableRecord
100
AcDbBlockTableRecord
  2
*PAPER_SPACE
  0
ENDTAB
  0
ENDSEC
  0
SECTION
  2
BLOCKS
  0
BLOCK
  5
20
330
1F
100
AcDbEntity
  8
0
100
AcDbBlockBegin
  2
*MODEL_SPACE
 70
     0
 10
0.0
 20
0.0
 30
0.0
  3
*MODEL_SPACE
  1

  0
ENDBLK
  5
21
330
1F
100
AcDbEntity
  8
0
100
AcDbBlockEnd
  0
BLOCK
  5
1C
330
1B
100
AcDbEntity
 67
     1
  8
0
100
AcDbBlockBegin
  2
*PAPER_SPACE
  1

  0
ENDBLK
  5
1D
330
1B
100
AcDbEntity
 67
     1
  8
0
100
AcDbBlockEnd
  0
ENDSEC
  0
SECTION
  2
ENTITIES
  0
LWPOLYLINE
  5
100
100
AcDbEntity
  8
Image
 62
7
100
AcDbPolyline
 90
222
 70
1
 10
1.461929
 20
48.999642
 30
0.0
 10
1.198380
 20
48.943315
 30
0.0
 10
0.936341
 20
48.797828
 30
0.0
 10
0.758202
 20
48.620422
 30
0.0
 10
0.521934
 20
48.202790
 30
0.0
 10
0.313683
 20
47.716342
 30
0.0
 10
0.128675
 20
47.148071
 30
0.0
 10
-0.175909
 20
45.816712
 30
0.0
 10
-0.284166
 20
45.092228
 30
0.0
 10
-0.355019
 20
44.354965
 30
0.0
 10
-0.375172
 20
44.191664
 30
0.0
 10
-0.829309
 20
44.711254
 30
0.0
 10
-1.398844
 20
45.227034
 30
0.0
 10
-2.067879
 20
45.737892
 30
0.0
 10
-2.820517
 20
46.242692
 30
0.0
 10
-3.691077
 20
46.764716
 30
0.0
 10
-4.583889
 20
47.236442
 30
0.0
 10
-5.467943
 20
47.634908
 30
0.0
 10
-6.312283
 20
47.937171
 30
0.0
 10
-7.146198
 20
48.164478
 30
0.0
 10
-7.992258
 20
48.345821
 30
0.0
 10
-8.847896
 20
48.481524
 30
0.0
 10
-9.710545
 20
48.571911
 30
0.0
 10
-10.577587
 20
48.617305
 30
0.0
 10
-11.446480
 20
48.618030
 30
0.0
 10
-12.314633
 20
48.574411
 30
0.0
 10
-13.179451
 20
48.486768
 30
0.0
 10
-14.038370
 20
48.355423
 30
0.0
 10
-14.888795
 20
48.180705
 30
0.0
 10
-15.728161
 20
47.962934
 30
0.0
 10
-16.553875
 20
47.702433
 30
0.0
 10
-17.363342
 20
47.399524
 30
0.0
 10
-18.154025
 20
47.054541
 30
0.0
 10
-18.923302
 20
46.667772
 30
0.0
 10
-19.668609
 20
46.239596
 30
0.0
 10
-20.306335
 20
45.834730
 30
0.0
 10
-20.812220
 20
45.460317
 30
0.0
 10
-21.209757
 20
45.054684
 30
0.0
 10
-21.357606
 20
44.819416
 30
0.0
 10
-21.459206
 20
44.554435
 30
0.0
 10
-21.500296
 20
44.271754
 30
0.0
 10
-21.480691
 20
43.991639
 30
0.0
 10
-21.412084
 20
43.720176
 30
0.0
 10
-21.306224
 20
43.463529
 30
0.0
 10
-21.013727
 20
42.966164
 30
0.0
 10
-20.620476
 20
42.423291
 30
0.0
 10
-19.812251
 20
41.483622
 30
0.0
 10
-18.863268
 20
40.605415
 30
0.0
 10
-17.793820
 20
39.799043
 30
0.0
 10
-16.624174
 20
39.074903
 30
0.0
 10
-15.374598
 20
38.443447
 30
0.0
 10
-14.065384
 20
37.915047
 30
0.0
 10
-12.716826
 20
37.500153
 30
0.0
 10
-11.349192
 20
37.209111
 30
0.0
 10
-10.600076
 20
37.108119
 30
0.0
 10
-9.907184
 20
37.064516
 30
0.0
 10
-9.255038
 20
37.081158
 30
0.0
 10
-8.628133
 20
37.160824
 30
0.0
 10
-8.011044
 20
37.306239
 30
0.0
 10
-7.388266
 20
37.520261
 30
0.0
 10
-6.744322
 20
37.805615
 30
0.0
 10
-6.063733
 20
38.165132
 30
0.0
 10
-4.323009
 20
39.120068
 30
0.0
 10
-3.293857
 20
39.593488
 30
0.0
 10
-2.976357
 20
39.689426
 30
0.0
 10
-2.730638
 20
39.719932
 30
0.0
 10
-2.491478
 20
39.695088
 30
0.0
 10
-2.193670
 20
39.624999
 30
0.0
 10
-1.761044
 20
39.496623
 30
0.0
 10
-1.438077
 20
39.350414
 30
0.0
 10
-1.188275
 20
39.160893
 30
0.0
 10
-0.975137
 20
38.902553
 30
0.0
 10
-0.770749
 20
38.532877
 30
0.0
 10
-0.568046
 20
38.014372
 30
0.0
 10
-0.361795
 20
37.329126
 30
0.0
 10
-0.146761
 20
36.459306
 30
0.0
 10
0.182418
 20
34.974118
 30
0.0
 10
0.190686
 20
34.841826
 30
0.0
 10
-0.240296
 20
34.850081
 30
0.0
 10
-2.260848
 20
35.071273
 30
0.0
 10
-3.320951
 20
35.153876
 30
0.0
 10
-4.314331
 20
35.150754
 30
0.0
 10
-5.252545
 20
35.058732
 30
0.0
 10
-6.147209
 20
34.874661
 30
0.0
 10
-7.009832
 20
34.595393
 30
0.0
 10
-7.852029
 20
34.217805
 30
0.0
 10
-8.685362
 20
33.738776
 30
0.0
 10
-9.521394
 20
33.155104
 30
0.0
 10
-10.240692
 20
32.563997
 30
0.0
 10
-10.899532
 20
31.926535
 30
0.0
 10
-11.497783
 20
31.243829
 30
0.0
 10
-12.035338
 20
30.517044
 30
0.0
 10
-12.512118
 20
29.747290
 30
0.0
 10
-12.927991
 20
28.935758
 30
0.0
 10
-13.282851
 20
28.083534
 30
0.0
 10
-13.576565
 20
27.191807
 30
0.0
 10
-13.809082
 20
26.261662
 30
0.0
 10
-13.980241
 20
25.294264
 30
0.0
 10
-14.089937
 20
24.290777
 30
0.0
 10
-14.138092
 20
23.252259
 30
0.0
 10
-14.124571
 20
22.179901
 30
0.0
 10
-14.049271
 20
21.074998
 30
0.0
 10
-13.912084
 20
19.938346
 30
0.0
 10
-13.712879
 20
18.771531
 30
0.0
 10
-13.456682
 20
17.575612
 30
0.0
 10
-13.163153
 20
16.434197
 30
0.0
 10
-12.827872
 20
15.335910
 30
0.0
 10
-12.446528
 20
14.269372
 30
0.0
 10
-12.014674
 20
13.222943
 30
0.0
 10
-11.527998
 20
12.185510
 30
0.0
 10
-10.982056
 20
11.145431
 30
0.0
 10
-10.372508
 20
10.091329
 30
0.0
 10
-9.205613
 20
8.282104
 30
0.0
 10
-7.987787
 20
6.634011
 30
0.0
 10
-6.731305
 20
5.163454
 30
0.0
 10
-6.092387
 20
4.500142
 30
0.0
 10
-5.448390
 20
3.887631
 30
0.0
 10
-4.800848
 20
3.328036
 30
0.0
 10
-4.151268
 20
2.823474
 30
0.0
 10
-3.501212
 20
2.376063
 30
0.0
 10
-2.852188
 20
1.988183
 30
0.0
 10
-2.205754
 20
1.661422
 30
0.0
 10
-1.563410
 20
1.398426
 30
0.0
 10
-0.926694
 20
1.200782
 30
0.0
 10
-0.297141
 20
1.071135
 30
0.0
 10
0.338831
 20
1.007106
 30
0.0
 10
0.968808
 20
1.009487
 30
0.0
 10
1.594322
 20
1.077750
 30
0.0
 10
2.216914
 20
1.212159
 30
0.0
 10
2.838112
 20
1.412184
 30
0.0
 10
3.459460
 20
1.677826
 30
0.0
 10
4.082503
 20
2.009085
 30
0.0
 10
4.708773
 20
2.405432
 30
0.0
 10
6.003725
 20
3.233315
 30
0.0
 10
6.460080
 20
3.468265
 30
0.0
 10
6.820258
 20
3.599234
 30
0.0
 10
7.127360
 20
3.650034
 30
0.0
 10
7.440495
 20
3.634953
 30
0.0
 10
7.807314
 20
3.552138
 30
0.0
 10
8.275469
 20
3.399738
 30
0.0
 10
8.847790
 20
3.210031
 30
0.0
 10
9.359945
 20
3.077739
 30
0.0
 10
9.834238
 20
3.016091
 30
0.0
 10
10.292921
 20
3.038581
 30
0.0
 10
10.729828
 20
3.154998
 30
0.0
 10
11.135541
 20
3.358463
 30
0.0
 10
11.527548
 20
3.638393
 30
0.0
 10
11.923339
 20
3.982616
 30
0.0
 10
12.275924
 20
4.283184
 30
0.0
 10
12.578634
 20
4.461778
 30
0.0
 10
12.906507
 20
4.550942
 30
0.0
 10
13.334603
 20
4.583222
 30
0.0
 10
15.262996
 20
4.667624
 30
0.0
 10
15.983723
 20
4.736945
 30
0.0
 10
16.590758
 20
4.836958
 30
0.0
 10
17.116750
 20
4.980362
 30
0.0
 10
17.582312
 20
5.173508
 30
0.0
 10
18.005964
 20
5.414280
 30
0.0
 10
18.406147
 20
5.700824
 30
0.0
 10
18.993867
 20
6.228404
 30
0.0
 10
19.540074
 20
6.857585
 30
0.0
 10
20.048207
 20
7.591276
 30
0.0
 10
20.521680
 20
8.431594
 30
0.0
 10
20.963905
 20
9.381185
 30
0.0
 10
21.378297
 20
10.442167
 30
0.0
 10
21.768240
 20
11.616654
 30
0.0
 10
22.137203
 20
12.907824
 30
0.0
 10
22.617951
 20
14.869448
 30
0.0
 10
22.975484
 20
16.706983
 30
0.0
 10
23.211175
 20
18.463556
 30
0.0
 10
23.326428
 20
20.181234
 30
0.0
 10
23.322618
 20
21.902617
 30
0.0
 10
23.201121
 20
23.670037
 30
0.0
 10
22.963286
 20
25.526225
 30
0.0
 10
22.610543
 20
27.513567
 30
0.0
 10
22.356701
 20
28.676440
 30
0.0
 10
22.066003
 20
29.790814
 30
0.0
 10
21.739163
 20
30.854759
 30
0.0
 10
21.376868
 20
31.866395
 30
0.0
 10
20.979833
 20
32.823818
 30
0.0
 10
20.548747
 20
33.725123
 30
0.0
 10
20.084349
 20
34.568379
 30
0.0
 10
19.587302
 20
35.351732
 30
0.0
 10
19.058346
 20
36.073226
 30
0.0
 10
18.498143
 20
36.731008
 30
0.0
 10
17.907406
 20
37.323173
 30
0.0
 10
17.286878
 20
37.847763
 30
0.0
 10
16.637218
 20
38.302927
 30
0.0
 10
15.959143
 20
38.686759
 30
0.0
 10
15.253366
 20
38.997354
 30
0.0
 10
14.520600
 20
39.232780
 30
0.0
 10
13.682822
 20
39.382879
 30
0.0
 10
12.790778
 20
39.405263
 30
0.0
 10
11.840789
 20
39.301810
 30
0.0
 10
10.829206
 20
39.074427
 30
0.0
 10
9.752402
 20
38.725070
 30
0.0
 10
8.606754
 20
38.255646
 30
0.0
 10
7.388557
 20
37.668031
 30
0.0
 10
6.094213
 20
36.964185
 30
0.0
 10
4.148066
 20
35.885689
 30
0.0
 10
3.695919
 20
35.652114
 30
0.0
 10
3.619481
 20
36.106034
 30
0.0
 10
3.564659
 20
36.694945
 30
0.0
 10
3.541746
 20
37.505101
 30
0.0
 10
3.560637
 20
38.374550
 30
0.0
 10
3.623291
 20
39.247041
 30
0.0
 10
3.731559
 20
40.066325
 30
0.0
 10
4.012308
 20
41.971832
 30
0.0
 10
4.085175
 20
42.752487
 30
0.0
 10
4.112533
 20
43.443950
 30
0.0
 10
4.094038
 20
44.065378
 30
0.0
 10
4.029268
 20
44.635953
 30
0.0
 10
3.917878
 20
45.174805
 30
0.0
 10
3.759472
 20
45.701141
 30
0.0
 10
3.234035
 20
47.071448
 30
0.0
 10
2.976542
 20
47.622092
 30
0.0
 10
2.719737
 20
48.084452
 30
0.0
 10
2.458212
 20
48.463138
 30
0.0
 10
2.155946
 20
48.766065
 30
0.0
 10
1.959580
 20
48.888528
 30
0.0
 10
1.721862
 20
48.973803
 30
0.0
 10
1.461929
 20
48.999642
 30
0.0
  0
LWPOLYLINE
  5
101
100
AcDbEntity
  8
Image
 62
7
100
AcDbPolyline
 90
38
 70
1
 10
-11.694924
 20
46.145536
 30
0.0
 10
-10.878948
 20
46.129529
 30
0.0
 10
-9.665196
 20
46.016420
 30
0.0
 10
-8.472875
 20
45.799672
 30
0.0
 10
-7.312436
 20
45.482542
 30
0.0
 10
-6.194358
 20
45.068283
 30
0.0
 10
-5.129090
 20
44.560150
 30
0.0
 10
-4.127111
 20
43.961370
 30
0.0
 10
-3.198898
 20
43.275225
 30
0.0
 10
-2.354900
 20
42.504942
 30
0.0
 10
-2.141992
 20
42.276527
 30
0.0
 10
-2.579386
 20
42.245068
 30
0.0
 10
-3.033057
 20
42.167174
 30
0.0
 10
-3.982702
 20
41.881768
 30
0.0
 10
-4.977828
 20
41.439886
 30
0.0
 10
-6.005339
 20
40.861109
 30
0.0
 10
-6.982104
 20
40.318818
 30
0.0
 10
-7.906163
 20
39.937182
 30
0.0
 10
-8.808526
 20
39.709640
 30
0.0
 10
-9.720361
 20
39.629656
 30
0.0
 10
-10.679160
 20
39.695167
 30
0.0
 10
-11.718684
 20
39.911782
 30
0.0
 10
-12.864279
 20
40.284316
 30
0.0
 10
-14.141293
 20
40.817691
 30
0.0
 10
-15.084852
 20
41.293703
 30
0.0
 10
-16.004890
 20
41.841075
 30
0.0
 10
-16.858966
 20
42.424932
 30
0.0
 10
-17.604643
 20
43.010324
 30
0.0
 10
-18.198792
 20
43.560817
 30
0.0
 10
-18.592176
 20
44.017515
 30
0.0
 10
-18.676419
 20
44.166846
 30
0.0
 10
-18.315209
 20
44.400950
 30
0.0
 10
-17.088916
 20
44.971975
 30
0.0
 10
-15.572718
 20
45.520854
 30
0.0
 10
-14.822623
 20
45.740353
 30
0.0
 10
-14.140764
 20
45.899579
 30
0.0
 10
-12.921085
 20
46.078676
 30
0.0
 10
-11.694924
 20
46.145536
 30
0.0
  0
LWPOLYLINE
  5
102
100
AcDbEntity
  8
Image
 62
7
100
AcDbPolyline
 90
117
 70
1
 10
12.479892
 20
36.954369
 30
0.0
 10
13.233718
 20
36.864649
 30
0.0
 10
13.979659
 20
36.648061
 30
0.0
 10
14.716604
 20
36.306086
 30
0.0
 10
15.443522
 20
35.840207
 30
0.0
 10
15.987824
 20
35.401950
 30
0.0
 10
16.519293
 20
34.891621
 30
0.0
 10
17.035020
 20
34.310647
 30
0.0
 10
17.532120
 20
33.660459
 30
0.0
 10
18.007631
 20
32.942458
 30
0.0
 10
18.458720
 20
32.158020
 30
0.0
 10
18.882424
 20
31.308599
 30
0.0
 10
19.275860
 20
30.395573
 30
0.0
 10
19.661730
 20
29.289057
 30
0.0
 10
20.012250
 20
28.009874
 30
0.0
 10
20.319511
 20
26.608770
 30
0.0
 10
20.575602
 20
25.136493
 30
0.0
 10
20.772558
 20
23.643790
 30
0.0
 10
20.902496
 20
22.181488
 30
0.0
 10
20.957450
 20
20.800096
 30
0.0
 10
20.929510
 20
19.550731
 30
0.0
 10
20.770971
 20
17.816384
 30
0.0
 10
20.515727
 20
16.070395
 30
0.0
 10
20.177192
 20
14.361712
 30
0.0
 10
19.768860
 20
12.739813
 30
0.0
 10
19.300520
 20
11.252587
 30
0.0
 10
18.791937
 20
9.952951
 30
0.0
 10
18.271606
 20
8.899378
 30
0.0
 10
18.015912
 20
8.482394
 30
0.0
 10
17.767944
 20
8.148754
 30
0.0
 10
17.457111
 20
7.820405
 30
0.0
 10
17.126196
 20
7.559261
 30
0.0
 10
16.760515
 20
7.356854
 30
0.0
 10
16.345277
 20
7.205248
 30
0.0
 10
15.863760
 20
7.101002
 30
0.0
 10
15.303769
 20
7.046762
 30
0.0
 10
14.657602
 20
7.044381
 30
0.0
 10
13.917535
 20
7.094652
 30
0.0
 10
13.088831
 20
7.153389
 30
0.0
 10
12.739316
 20
7.135662
 30
0.0
 10
12.403400
 20
7.068193
 30
0.0
 10
12.084736
 20
6.946485
 30
0.0
 10
11.785465
 20
6.776093
 30
0.0
 10
11.147659
 20
6.292698
 30
0.0
 10
10.440003
 20
5.770145
 30
0.0
 10
10.206481
 20
5.644468
 30
0.0
 10
10.025241
 20
5.588376
 30
0.0
 10
9.837889
 20
5.582819
 30
0.0
 10
9.582698
 20
5.625947
 30
0.0
 10
8.764870
 20
5.892647
 30
0.0
 10
8.211069
 20
6.086323
 30
0.0
 10
7.696506
 20
6.217027
 30
0.0
 10
7.199988
 20
6.263329
 30
0.0
 10
6.700375
 20
6.204856
 30
0.0
 10
6.198353
 20
6.038433
 30
0.0
 10
5.679160
 20
5.774378
 30
0.0
 10
4.412148
 20
4.939616
 30
0.0
 10
3.752514
 20
4.517076
 30
0.0
 10
3.108807
 20
4.171000
 30
0.0
 10
2.485842
 20
3.900860
 30
0.0
 10
1.888446
 20
3.705068
 30
0.0
 10
1.321419
 20
3.582301
 30
0.0
 10
0.789571
 20
3.531501
 30
0.0
 10
0.297712
 20
3.551609
 30
0.0
 10
-0.149345
 20
3.641039
 30
0.0
 10
-0.692109
 20
3.836566
 30
0.0
 10
-1.267732
 20
4.113850
 30
0.0
 10
-1.870476
 20
4.468392
 30
0.0
 10
-2.494600
 20
4.896489
 30
0.0
 10
-3.134366
 20
5.394436
 30
0.0
 10
-3.784025
 20
5.957735
 30
0.0
 10
-4.437865
 20
6.582682
 30
0.0
 10
-5.090144
 20
7.265044
 30
0.0
 10
-6.372608
 20
8.783755
 30
0.0
 10
-7.599642
 20
10.475504
 30
0.0
 10
-8.737988
 20
12.303514
 30
0.0
 10
-9.263531
 20
13.257074
 30
0.0
 10
-9.754466
 20
14.231272
 30
0.0
 10
-10.165947
 20
15.207322
 30
0.0
 10
-10.560759
 20
16.364347
 30
0.0
 10
-10.925488
 20
17.638583
 30
0.0
 10
-11.246587
 20
18.966000
 30
0.0
 10
-11.510642
 20
20.282834
 30
0.0
 10
-11.704158
 20
21.524791
 30
0.0
 10
-11.813643
 20
22.628635
 30
0.0
 10
-11.825655
 20
23.529807
 30
0.0
 10
-11.692358
 20
24.878656
 30
0.0
 10
-11.443226
 20
26.143287
 30
0.0
 10
-11.083921
 20
27.316055
 30
0.0
 10
-10.620158
 20
28.389234
 30
0.0
 10
-10.057573
 20
29.355150
 30
0.0
 10
-9.401855
 20
30.206131
 30
0.0
 10
-8.658639
 20
30.934451
 30
0.0
 10
-7.833640
 20
31.532464
 30
0.0
 10
-7.206576
 20
31.888700
 30
0.0
 10
-6.595864
 20
32.170614
 30
0.0
 10
-5.978802
 20
32.381699
 30
0.0
 10
-5.332608
 20
32.525315
 30
0.0
 10
-4.634557
 20
32.604928
 30
0.0
 10
-3.861945
 20
32.624005
 30
0.0
 10
-2.991967
 20
32.585931
 30
0.0
 10
-2.001950
 20
32.494147
 30
0.0
 10
-0.796307
 20
32.389186
 30
0.0
 10
0.282216
 20
32.367305
 30
0.0
 10
1.280197
 20
32.439987
 30
0.0
 10
2.244214
 20
32.618713
 30
0.0
 10
3.220832
 20
32.914915
 30
0.0
 10
4.256652
 20
33.340101
 30
0.0
 10
5.398199
 20
33.905728
 30
0.0
 10
6.692120
 20
34.623227
 30
0.0
 10
7.966408
 20
35.327179
 30
0.0
 10
9.205137
 20
35.965461
 30
0.0
 10
10.234183
 20
36.457931
 30
0.0
 10
10.879450
 20
36.724393
 30
0.0
 10
11.464154
 20
36.874147
 30
0.0
 10
12.045789
 20
36.948152
 30
0.0
 10
12.479892
 20
36.954369
 30
0.0
  0
LWPOLYLINE
  5
103
100
AcDbEntity
  8
Image
 62
7
100
AcDbPolyline
 90
120
 70
1
 10
9.571700
 20
28.164955
 30
0.0
 10
9.159134
 20
28.048690
 30
0.0
 10
8.775796
 20
27.866899
 30
0.0
 10
8.416806
 20
27.619453
 30
0.0
 10
8.077340
 20
27.306234
 30
0.0
 10
7.583776
 20
26.765218
 30
0.0
 10
5.729609
 20
24.574969
 30
0.0
 10
5.725183
 20
24.570272
 30
0.0
 10
4.756163
 20
23.370966
 30
0.0
 10
4.864429
 20
25.479096
 30
0.0
 10
5.339193
 20
25.850451
 30
0.0
 10
5.529738
 20
26.064805
 30
0.0
 10
5.687648
 20
26.306219
 30
0.0
 10
6.254893
 20
27.337947
 30
0.0
 10
5.086851
 20
27.190636
 30
0.0
 10
3.268735
 20
26.917218
 30
0.0
 10
2.154008
 20
26.658672
 30
0.0
 10
1.165542
 20
26.338987
 30
0.0
 10
0.306541
 20
25.954678
 30
0.0
 10
-0.419757
 20
25.501993
 30
0.0
 10
-0.423058
 20
25.499707
 30
0.0
 10
-0.425843
 20
25.497521
 30
0.0
 10
-0.928062
 20
25.067949
 30
0.0
 10
-1.358546
 20
24.599760
 30
0.0
 10
-1.713936
 20
24.097717
 30
0.0
 10
-1.990978
 20
23.567111
 30
0.0
 10
-2.186200
 20
23.012179
 30
0.0
 10
-2.296362
 20
22.438209
 30
0.0
 10
-2.318040
 20
21.849702
 30
0.0
 10
-2.247890
 20
21.251421
 30
0.0
 10
-2.148453
 20
20.853332
 30
0.0
 10
-2.007014
 20
20.477397
 30
0.0
 10
-1.558773
 20
19.669266
 30
0.0
 10
-1.226811
 20
19.148838
 30
0.0
 10
1.214881
 20
20.804626
 30
0.0
 10
0.889659
 20
21.298701
 30
0.0
 10
0.421930
 20
22.105500
 30
0.0
 10
0.291697
 20
22.449377
 30
0.0
 10
0.200662
 20
22.822532
 30
0.0
 10
0.159639
 20
23.185161
 30
0.0
 10
0.190462
 20
23.488375
 30
0.0
 10
0.291434
 20
23.748828
 30
0.0
 10
0.460907
 20
23.982907
 30
0.0
 10
0.711660
 20
24.203787
 30
0.0
 10
1.060034
 20
24.407254
 30
0.0
 10
1.509685
 20
24.583886
 30
0.0
 10
2.064368
 20
24.723731
 30
0.0
 10
2.240171
 20
24.746752
 30
0.0
 10
2.236120
 20
24.679672
 30
0.0
 10
2.235910
 20
24.675249
 30
0.0
 10
2.091329
 20
21.619110
 30
0.0
 10
1.958745
 20
19.659366
 30
0.0
 10
1.805014
 20
18.378124
 30
0.0
 10
1.597039
 20
17.357225
 30
0.0
 10
1.299506
 20
16.606226
 30
0.0
 10
1.131548
 20
16.332448
 30
0.0
 10
0.951881
 20
16.118570
 30
0.0
 10
0.755920
 20
15.951646
 30
0.0
 10
0.533770
 20
15.822899
 30
0.0
 10
0.273088
 20
15.728830
 30
0.0
 10
-0.038514
 20
15.666203
 30
0.0
 10
-0.054081
 20
15.663718
 30
0.0
 10
-1.038002
 20
15.472020
 30
0.0
 10
-2.696784
 20
13.070840
 30
0.0
 10
1.374496
 20
13.864052
 30
0.0
 10
2.676966
 20
14.139728
 30
0.0
 10
3.048297
 20
14.281652
 30
0.0
 10
3.346787
 20
14.455403
 30
0.0
 10
3.352871
 20
14.459876
 30
0.0
 10
3.359057
 20
14.463820
 30
0.0
 10
3.936966
 20
14.907043
 30
0.0
 10
4.532392
 20
15.424351
 30
0.0
 10
5.931206
 20
16.699450
 30
0.0
 10
6.487378
 20
15.811543
 30
0.0
 10
7.018794
 20
15.050297
 30
0.0
 10
7.533661
 20
14.428269
 30
0.0
 10
8.040243
 20
13.958024
 30
0.0
 10
8.040346
 20
13.957496
 30
0.0
 10
8.491628
 20
13.648228
 30
0.0
 10
8.969155
 20
13.394476
 30
0.0
 10
9.470136
 20
13.197065
 30
0.0
 10
9.992092
 20
13.055513
 30
0.0
 10
10.532258
 20
12.970650
 30
0.0
 10
11.088179
 20
12.941998
 30
0.0
 10
11.657066
 20
12.970383
 30
0.0
 10
12.236412
 20
13.055591
 30
0.0
 10
12.706812
 20
13.165045
 30
0.0
 10
13.141568
 20
13.311382
 30
0.0
 10
13.580001
 20
13.512947
 30
0.0
 10
14.061274
 20
13.788600
 30
0.0
 10
14.466100
 20
14.039224
 30
0.0
 10
13.311593
 20
17.458318
 30
0.0
 10
12.682611
 20
16.079004
 30
0.0
 10
12.320909
 20
15.361521
 30
0.0
 10
12.039935
 20
14.951224
 30
0.0
 10
11.827525
 20
14.766577
 30
0.0
 10
11.561390
 20
14.683498
 30
0.0
 10
11.257554
 20
14.695248
 30
0.0
 10
10.874645
 20
14.848277
 30
0.0
 10
10.428607
 20
15.167606
 30
0.0
 10
9.935384
 20
15.678530
 30
0.0
 10
9.427264
 20
16.332005
 30
0.0
 10
8.915518
 20
17.077908
 30
0.0
 10
7.322053
 20
19.682290
 30
0.0
 10
7.321114
 20
19.684299
 30
0.0
 10
7.320278
 20
19.685779
 30
0.0
 10
5.899584
 20
22.038119
 30
0.0
 10
7.242272
 20
23.673999
 30
0.0
 10
8.196980
 20
24.731088
 30
0.0
 10
8.562680
 20
25.065854
 30
0.0
 10
8.848354
 20
25.276828
 30
0.0
 10
9.084906
 20
25.396328
 30
0.0
 10
9.303054
 20
25.457457
 30
0.0
 10
9.674235
 20
25.490329
 30
0.0
 10
10.249139
 20
25.393059
 30
0.0
 10
10.802076
 20
25.273431
 30
0.0
 10
11.561071
 20
28.003874
 30
0.0
 10
10.920537
 20
28.125611
 30
0.0
 10
10.195107
 20
28.214371
 30
0.0
 10
9.571623
 20
28.165214
 30
0.0
  0
LWPOLYLINE
  5
104
100
AcDbEntity
  8
Image
 62
7
100
AcDbPolyline
 90
10
 70
1
 10
4.420107
 20
19.362064
 30
0.0
 10
4.853602
 20
18.537364
 30
0.0
 10
4.854438
 20
18.535884
 30
0.0
 10
5.384945
 20
17.602984
 30
0.0
 10
5.862928
 20
16.816535
 30
0.0
 10
3.066775
 20
16.271758
 30
0.0
 10
3.569019
 20
17.125097
 30
0.0
 10
3.952983
 20
17.897592
 30
0.0
 10
4.232138
 20
18.629945
 30
0.0
 10
4.420158
 20
19.361800
 30
0.0
  0
LWPOLYLINE
  5
105
100
AcDbEntity
  8
Image
 62
7
100
AcDbPolyline
 90
6
 70
1
 10
50.644555
 20
46.342951
 30
0.0
 10
25.724579
 20
32.509143
 30
0.0
 10
31.179555
 20
4.532501
 30
0.0
 10
59.470906
 20
1.075856
 30
0.0
 10
59.823859
 20
1.832917
 30
0.0
 10
71.501204
 20
26.915675
 30
0.0
  0
LWPOLYLINE
  5
106
100
AcDbEntity
  8
Image
 62
7
100
AcDbPolyline
 90
5
 70
1
 10
50.299871
 20
43.520896
 30
0.0
 10
68.710672
 20
26.371521
 30
0.0
 10
58.091660
 20
3.561499
 30
0.0
 10
33.116909
 20
6.612998
 30
0.0
 10
28.301689
 20
31.309214
 30
0.0
  0
ENDSEC
  0
SECTION
  2
OBJECTS
  0
DICTIONARY
  5
C
330
0
100
AcDbDictionary
  3
ACAD_GROUP
350
D
  3
ACAD_MLINESTYLE
350
17
  0
DICTIONARY
  5
D
330
C
100
AcDbDictionary
  0
DICTIONARY
  5
1A
330
C
100
AcDbDictionary
  0
DICTIONARY
  5
17
330
C
100
AcDbDictionary
  3
STANDARD
350
18
  0
DICTIONARY
  5
19
330
C
100
AcDbDictionary
  0
ENDSEC
  0
EOF
