  0
SECTION
  2
HEADER
  9
$ACADVER
  1
AC1014
  9
$HANDSEED
  5
FFFF
  9
$INSUNITS
 70
     4
  9
$MEASUREMENT
 70
     1
  0
ENDSEC
  0
SECTION
  2
TABLES
  0
TABLE
  2
VPORT
  5
8
330
0
100
AcDbSymbolTable
 70
     4
  0
VPORT
  5
2E
330
8
100
AcDbSymbolTableRecord
100
AcDbViewportTableRecord
  2
*ACTIVE
 70
     0
 10
0.0
 20
0.0
 11
1.0
 21
1.0
 12
210.0
 22
148.5
 13
0.0
 23
0.0
 14
10.0
 24
10.0
 15
10.0
 25
10.0
 16
0.0
 26
0.0
 36
1.0
 17
0.0
 27
0.0
 37
0.0
 40
341.0
 41
1.24
 42
50.0
 43
0.0
 44
0.0
 50
0.0
 51
0.0
 71
     0
 72
   100
 73
     1
 74
     3
 75
     0
 76
     0
 77
     0
 78
     0
  0
ENDTAB
  0
TABLE
  2
LTYPE
  5
5
330
0
100
AcDbSymbolTable
 70
     1
  0
LTYPE
  5
14
330
5
100
AcDbSymbolTableRecord
100
AcDbLinetypeTableRecord
  2
BYBLOCK
 70
     0
  3

 72
    65
 73
     0
 40
0.0
  0
LTYPE
  5
15
330
5
100
AcDbSymbolTableRecord
100
AcDbLinetypeTableRecord
  2
BYLAYER
 70
     0
  3

 72
    65
 73
     0
 40
0.0
  0
LTYPE
  5
16
330
5
100
AcDbSymbolTableRecord
100
AcDbLinetypeTableRecord
  2
CONTINUOUS
 70
     0
  3
Solid line
 72
    65
 73
     0
 40
0.0
  0
ENDTAB
  0
TABLE
  2
LAYER
  5
2
100
AcDbSymbolTable
 70
1
  0
LAYER
  5
50
100
AcDbSymbolTableRecord
100
AcDbLayerTableRecord
  2
0
 70
0
  6
CONTINUOUS
  0
ENDTAB
  0
TABLE
  2
STYLE
  5
3
330
0
100
AcDbSymbolTable
 70
     1
  0
STYLE
  5
11
330
3
100
AcDbSymbolTableRecord
100
AcDbTextStyleTableRecord
  2
STANDARD
 70
     0
 40
0.0
 41
1.0
 50
0.0
 71
     0
 42
2.5
  3
txt
  4

  0
ENDTAB
  0
TABLE
  2
VIEW
  5
6
330
0
100
AcDbSymbolTable
 70
     0
  0
ENDTAB
  0
TABLE
  2
UCS
  5
7
330
0
100
AcDbSymbolTable
 70
     0
  0
ENDTAB
  0
TABLE
  2
APPID
  5
9
330
0
100
AcDbSymbolTable
 70
     2
  0
APPID
  5
12
330
9
100
AcDbSymbolTableRecord
100
AcDbRegAppTableRecord
  2
ACAD
 70
     0
  0
ENDTAB
  0
TABLE
  2
DIMSTYLE
  5
A
330
0
100
AcDbSymbolTable
 70
     1
  0
DIMSTYLE
105
27
330
A
100
AcDbSymbolTableRecord
100
AcDbDimStyleTableRecord
  2
ISO-25
 70
     0
  3

  4

  5

  6

  7

 40
1.0
 41
2.5
 42
0.625
 43
3.75
 44
1.25
 45
0.0
 46
0.0
 47
0.0
 48
0.0
140
2.5
141
2.5
142
0.0
143
0.03937007874016
144
1.0
145
0.0
146
1.0
147
0.625
 71
     0
 72
     0
 73
     0
 74
     0
 75
     0
 76
     0
 77
     1
 78
     8
170
     0
171
     3
172
     1
173
     0
174
     0
175
     0
176
     0
177
     0
178
     0
270
     2
271
     2
272
     2
273
     2
274
     3
340
11
275
     0
280
     0
281
     0
282
     0
283
     0
284
     8
285
     0
286
     0
287
     3
288
     0
  0
ENDTAB
  0
TABLE
  2
BLOCK_RECORD
  5
1
330
0
100
AcDbSymbolTable
 70
     1
  0
BLOCK_RECORD
  5
1F
330
1
100
AcDbSymbolTableRecord
100
AcDbBlockTableRecord
  2
*MODEL_SPACE
  0
BLOCK_RECORD
  5
1B
330
1
100
AcDbSymbolTableRecord
100
AcDbBlockTableRecord
  2
*PAPER_SPACE
  0
ENDTAB
  0
ENDSEC
  0
SECTION
  2
BLOCKS
  0
BLOCK
  5
20
330
1F
100
AcDbEntity
  8
0
100
AcDbBlockBegin
  2
*MODEL_SPACE
 70
     0
 10
0.0
 20
0.0
 30
0.0
  3
*MODEL_SPACE
  1

  0
ENDBLK
  5
21
330
1F
100
AcDbEntity
  8
0
100
AcDbBlockEnd
  0
BLOCK
  5
1C
330
1B
100
AcDbEntity
 67
     1
  8
0
100
AcDbBlockBegin
  2
*PAPER_SPACE
  1

  0
ENDBLK
  5
1D
330
1B
100
AcDbEntity
 67
     1
  8
0
100
AcDbBlockEnd
  0
ENDSEC
  0
SECTION
  2
ENTITIES
  0
LINE
  5
100
100
AcDbEntity
  8
0
 62
7
100
AcDbLine
 10
-6.570044
 20
47.298299
 30
0.0
 11
-9.409742
 21
46.442846
 31
0.0
  0
LINE
  5
101
100
AcDbEntity
  8
0
 62
7
100
AcDbLine
 10
-9.409742
 20
46.442846
 30
0.0
 11
-10.300510
 21
45.969707
 31
0.0
  0
LINE
  5
102
100
AcDbEntity
  8
0
 62
7
100
AcDbLine
 10
-10.300510
 20
45.969707
 30
0.0
 11
-10.803336
 21
45.498856
 31
0.0
  0
LINE
  5
103
100
AcDbEntity
  8
0
 62
7
100
AcDbLine
 10
-10.803336
 20
45.498856
 30
0.0
 11
-11.160152
 21
44.674467
 31
0.0
  0
LINE
  5
104
100
AcDbEntity
  8
0
 62
7
100
AcDbLine
 10
-11.160152
 20
44.674467
 30
0.0
 11
-11.261468
 21
43.587222
 31
0.0
  0
LINE
  5
105
100
AcDbEntity
  8
0
 62
7
100
AcDbLine
 10
-11.261468
 20
43.587222
 30
0.0
 11
-11.060981
 21
42.161628
 31
0.0
  0
LINE
  5
106
100
AcDbEntity
  8
0
 62
7
100
AcDbLine
 10
-11.060981
 20
42.161628
 30
0.0
 11
-10.512389
 21
40.322192
 31
0.0
  0
LINE
  5
107
100
AcDbEntity
  8
0
 62
7
100
AcDbLine
 10
-10.512389
 20
40.322192
 30
0.0
 11
-9.751986
 21
38.632911
 31
0.0
  0
LINE
  5
108
100
AcDbEntity
  8
0
 62
7
100
AcDbLine
 10
-9.751986
 20
38.632911
 30
0.0
 11
-8.620976
 21
36.863244
 31
0.0
  0
LINE
  5
109
100
AcDbEntity
  8
0
 62
7
100
AcDbLine
 10
-8.620976
 20
36.863244
 30
0.0
 11
-7.148476
 21
35.213049
 31
0.0
  0
LINE
  5
10a
100
AcDbEntity
  8
0
 62
7
100
AcDbLine
 10
-7.148476
 20
35.213049
 30
0.0
 11
-5.363605
 21
33.882183
 31
0.0
  0
LINE
  5
10b
100
AcDbEntity
  8
0
 62
7
100
AcDbLine
 10
-5.363605
 20
33.882183
 30
0.0
 11
-3.943328
 21
33.351782
 31
0.0
  0
LINE
  5
10c
100
AcDbEntity
  8
0
 62
7
100
AcDbLine
 10
-3.943328
 20
33.351782
 30
0.0
 11
-1.905526
 21
32.953580
 31
0.0
  0
LINE
  5
10d
100
AcDbEntity
  8
0
 62
7
100
AcDbLine
 10
-1.905526
 20
32.953580
 30
0.0
 11
0.797865
 21
32.800712
 31
0.0
  0
LINE
  5
10e
100
AcDbEntity
  8
0
 62
7
100
AcDbLine
 10
0.797865
 20
32.800712
 30
0.0
 11
1.606463
 21
32.719269
 31
0.0
  0
LINE
  5
10f
100
AcDbEntity
  8
0
 62
7
100
AcDbLine
 10
1.606463
 20
32.719269
 30
0.0
 11
1.958716
 21
32.444313
 31
0.0
  0
LINE
  5
110
100
AcDbEntity
  8
0
 62
7
100
AcDbLine
 10
1.958716
 20
32.444313
 30
0.0
 11
1.798541
 21
31.997513
 31
0.0
  0
LINE
  5
111
100
AcDbEntity
  8
0
 62
7
100
AcDbLine
 10
1.798541
 20
31.997513
 30
0.0
 11
1.206529
 21
31.550124
 31
0.0
  0
LINE
  5
112
100
AcDbEntity
  8
0
 62
7
100
AcDbLine
 10
1.206529
 20
31.550124
 30
0.0
 11
0.316990
 21
31.183819
 31
0.0
  0
LINE
  5
113
100
AcDbEntity
  8
0
 62
7
100
AcDbLine
 10
0.316990
 20
31.183819
 30
0.0
 11
-0.735765
 21
30.980270
 31
0.0
  0
LINE
  5
114
100
AcDbEntity
  8
0
 62
7
100
AcDbLine
 10
-0.735765
 20
30.980270
 30
0.0
 11
-2.815131
 21
30.973963
 31
0.0
  0
LINE
  5
115
100
AcDbEntity
  8
0
 62
7
100
AcDbLine
 10
-2.815131
 20
30.973963
 30
0.0
 11
-3.801166
 21
31.063514
 31
0.0
  0
LINE
  5
116
100
AcDbEntity
  8
0
 62
7
100
AcDbLine
 10
-3.801166
 20
31.063514
 30
0.0
 11
0.690236
 21
27.828049
 31
0.0
  0
LINE
  5
117
100
AcDbEntity
  8
0
 62
7
100
AcDbLine
 10
0.690236
 20
27.828049
 30
0.0
 11
1.856315
 21
28.220421
 31
0.0
  0
LINE
  5
118
100
AcDbEntity
  8
0
 62
7
100
AcDbLine
 10
1.856315
 20
28.220421
 30
0.0
 11
3.893920
 21
29.039424
 31
0.0
  0
LINE
  5
119
100
AcDbEntity
  8
0
 62
7
100
AcDbLine
 10
3.893920
 20
29.039424
 30
0.0
 11
5.627237
 21
30.076449
 31
0.0
  0
LINE
  5
11a
100
AcDbEntity
  8
0
 62
7
100
AcDbLine
 10
5.627237
 20
30.076449
 30
0.0
 11
6.370340
 21
30.406502
 31
0.0
  0
LINE
  5
11b
100
AcDbEntity
  8
0
 62
7
100
AcDbLine
 10
6.370340
 20
30.406502
 30
0.0
 11
6.655344
 21
30.418851
 31
0.0
  0
LINE
  5
11c
100
AcDbEntity
  8
0
 62
7
100
AcDbLine
 10
6.655344
 20
30.418851
 30
0.0
 11
6.861446
 21
30.289201
 31
0.0
  0
LINE
  5
11d
100
AcDbEntity
  8
0
 62
7
100
AcDbLine
 10
6.861446
 20
30.289201
 30
0.0
 11
6.926516
 21
29.806842
 31
0.0
  0
LINE
  5
11e
100
AcDbEntity
  8
0
 62
7
100
AcDbLine
 10
6.926516
 20
29.806842
 30
0.0
 11
6.573666
 21
29.241124
 31
0.0
  0
LINE
  5
11f
100
AcDbEntity
  8
0
 62
7
100
AcDbLine
 10
6.573666
 20
29.241124
 30
0.0
 11
5.208872
 21
28.045705
 31
0.0
  0
LINE
  5
120
100
AcDbEntity
  8
0
 62
7
100
AcDbLine
 10
5.208872
 20
28.045705
 30
0.0
 11
3.575258
 21
27.035887
 31
0.0
  0
LINE
  5
121
100
AcDbEntity
  8
0
 62
7
100
AcDbLine
 10
3.575258
 20
27.035887
 30
0.0
 11
2.695074
 21
26.598573
 31
0.0
  0
LINE
  5
122
100
AcDbEntity
  8
0
 62
7
100
AcDbLine
 10
2.695074
 20
26.598573
 30
0.0
 11
8.088810
 21
23.933709
 31
0.0
  0
LINE
  5
123
100
AcDbEntity
  8
0
 62
7
100
AcDbLine
 10
8.088810
 20
23.933709
 30
0.0
 11
12.406865
 21
21.652178
 31
0.0
  0
LINE
  5
124
100
AcDbEntity
  8
0
 62
7
100
AcDbLine
 10
12.406865
 20
21.652178
 30
0.0
 11
15.650941
 21
19.670847
 31
0.0
  0
LINE
  5
125
100
AcDbEntity
  8
0
 62
7
100
AcDbLine
 10
15.650941
 20
19.670847
 30
0.0
 11
23.225412
 21
14.464845
 31
0.0
  0
LINE
  5
126
100
AcDbEntity
  8
0
 62
7
100
AcDbLine
 10
23.225412
 20
14.464845
 30
0.0
 11
27.503515
 21
11.769962
 31
0.0
  0
LINE
  5
127
100
AcDbEntity
  8
0
 62
7
100
AcDbLine
 10
27.503515
 20
11.769962
 30
0.0
 11
30.386741
 21
10.272154
 31
0.0
  0
LINE
  5
128
100
AcDbEntity
  8
0
 62
7
100
AcDbLine
 10
30.386741
 20
10.272154
 30
0.0
 11
32.087754
 21
9.688072
 31
0.0
  0
LINE
  5
129
100
AcDbEntity
  8
0
 62
7
100
AcDbLine
 10
32.087754
 20
9.688072
 30
0.0
 11
33.822077
 21
9.229247
 31
0.0
  0
LINE
  5
12a
100
AcDbEntity
  8
0
 62
7
100
AcDbLine
 10
33.822077
 20
9.229247
 30
0.0
 11
35.799716
 21
9.092983
 31
0.0
  0
LINE
  5
12b
100
AcDbEntity
  8
0
 62
7
100
AcDbLine
 10
35.799716
 20
9.092983
 30
0.0
 11
38.230673
 21
9.476588
 31
0.0
  0
LINE
  5
12c
100
AcDbEntity
  8
0
 62
7
100
AcDbLine
 10
38.230673
 20
9.476588
 30
0.0
 11
39.218209
 21
9.720011
 31
0.0
  0
LINE
  5
12d
100
AcDbEntity
  8
0
 62
7
100
AcDbLine
 10
39.218209
 20
9.720011
 30
0.0
 11
37.193733
 21
7.531816
 31
0.0
  0
LINE
  5
12e
100
AcDbEntity
  8
0
 62
7
100
AcDbLine
 10
37.193733
 20
7.531816
 30
0.0
 11
36.599480
 21
6.719380
 31
0.0
  0
LINE
  5
12f
100
AcDbEntity
  8
0
 62
7
100
AcDbLine
 10
36.599480
 20
6.719380
 30
0.0
 11
36.441478
 21
6.239809
 31
0.0
  0
LINE
  5
130
100
AcDbEntity
  8
0
 62
7
100
AcDbLine
 10
36.441478
 20
6.239809
 30
0.0
 11
36.819957
 21
6.100047
 31
0.0
  0
LINE
  5
131
100
AcDbEntity
  8
0
 62
7
100
AcDbLine
 10
36.819957
 20
6.100047
 30
0.0
 11
37.697239
 21
6.120995
 31
0.0
  0
LINE
  5
132
100
AcDbEntity
  8
0
 62
7
100
AcDbLine
 10
37.697239
 20
6.120995
 30
0.0
 11
40.398809
 21
6.509604
 31
0.0
  0
LINE
  5
133
100
AcDbEntity
  8
0
 62
7
100
AcDbLine
 10
40.398809
 20
6.509604
 30
0.0
 11
45.744146
 21
7.725739
 31
0.0
  0
LINE
  5
134
100
AcDbEntity
  8
0
 62
7
100
AcDbLine
 10
45.744146
 20
7.725739
 30
0.0
 11
48.403631
 21
8.790822
 31
0.0
  0
LINE
  5
135
100
AcDbEntity
  8
0
 62
7
100
AcDbLine
 10
48.403631
 20
8.790822
 30
0.0
 11
49.508525
 21
9.372365
 31
0.0
  0
LINE
  5
136
100
AcDbEntity
  8
0
 62
7
100
AcDbLine
 10
49.508525
 20
9.372365
 30
0.0
 11
48.122331
 21
7.944192
 31
0.0
  0
LINE
  5
137
100
AcDbEntity
  8
0
 62
7
100
AcDbLine
 10
48.122331
 20
7.944192
 30
0.0
 11
47.220253
 21
6.879899
 31
0.0
  0
LINE
  5
138
100
AcDbEntity
  8
0
 62
7
100
AcDbLine
 10
47.220253
 20
6.879899
 30
0.0
 11
46.917225
 21
6.222957
 31
0.0
  0
LINE
  5
139
100
AcDbEntity
  8
0
 62
7
100
AcDbLine
 10
46.917225
 20
6.222957
 30
0.0
 11
47.463515
 21
6.059906
 31
0.0
  0
LINE
  5
13a
100
AcDbEntity
  8
0
 62
7
100
AcDbLine
 10
47.463515
 20
6.059906
 30
0.0
 11
48.551188
 21
6.111258
 31
0.0
  0
LINE
  5
13b
100
AcDbEntity
  8
0
 62
7
100
AcDbLine
 10
48.551188
 20
6.111258
 30
0.0
 11
51.216905
 21
6.583387
 31
0.0
  0
LINE
  5
13c
100
AcDbEntity
  8
0
 62
7
100
AcDbLine
 10
51.216905
 20
6.583387
 30
0.0
 11
53.166620
 21
7.297840
 31
0.0
  0
LINE
  5
13d
100
AcDbEntity
  8
0
 62
7
100
AcDbLine
 10
53.166620
 20
7.297840
 30
0.0
 11
54.211358
 21
7.861876
 31
0.0
  0
LINE
  5
13e
100
AcDbEntity
  8
0
 62
7
100
AcDbLine
 10
54.211358
 20
7.861876
 30
0.0
 11
58.407102
 21
2.173967
 31
0.0
  0
LINE
  5
13f
100
AcDbEntity
  8
0
 62
7
100
AcDbLine
 10
58.407102
 20
2.173967
 30
0.0
 11
59.005664
 21
1.635266
 31
0.0
  0
LINE
  5
140
100
AcDbEntity
  8
0
 62
7
100
AcDbLine
 10
59.005664
 20
1.635266
 30
0.0
 11
59.852727
 21
1.207600
 31
0.0
  0
LINE
  5
141
100
AcDbEntity
  8
0
 62
7
100
AcDbLine
 10
59.852727
 20
1.207600
 30
0.0
 11
60.722006
 21
1.001001
 31
0.0
  0
LINE
  5
142
100
AcDbEntity
  8
0
 62
7
100
AcDbLine
 10
60.722006
 20
1.001001
 30
0.0
 11
61.387217
 21
1.125499
 31
0.0
  0
LINE
  5
143
100
AcDbEntity
  8
0
 62
7
100
AcDbLine
 10
61.387217
 20
1.125499
 30
0.0
 11
61.619530
 21
1.435128
 31
0.0
  0
LINE
  5
144
100
AcDbEntity
  8
0
 62
7
100
AcDbLine
 10
61.619530
 20
1.435128
 30
0.0
 11
61.671506
 21
1.863319
 31
0.0
  0
LINE
  5
145
100
AcDbEntity
  8
0
 62
7
100
AcDbLine
 10
61.671506
 20
1.863319
 30
0.0
 11
61.503220
 21
2.821186
 31
0.0
  0
LINE
  5
146
100
AcDbEntity
  8
0
 62
7
100
AcDbLine
 10
61.503220
 20
2.821186
 30
0.0
 11
59.683317
 21
5.413628
 31
0.0
  0
LINE
  5
147
100
AcDbEntity
  8
0
 62
7
100
AcDbLine
 10
59.683317
 20
5.413628
 30
0.0
 11
55.213257
 21
11.106284
 31
0.0
  0
LINE
  5
148
100
AcDbEntity
  8
0
 62
7
100
AcDbLine
 10
55.213257
 20
11.106284
 30
0.0
 11
55.552968
 21
12.762923
 31
0.0
  0
LINE
  5
149
100
AcDbEntity
  8
0
 62
7
100
AcDbLine
 10
55.552968
 20
12.762923
 30
0.0
 11
55.650754
 21
14.111966
 31
0.0
  0
LINE
  5
14a
100
AcDbEntity
  8
0
 62
7
100
AcDbLine
 10
55.650754
 20
14.111966
 30
0.0
 11
55.337509
 21
17.083637
 31
0.0
  0
LINE
  5
14b
100
AcDbEntity
  8
0
 62
7
100
AcDbLine
 10
55.337509
 20
17.083637
 30
0.0
 11
55.108885
 21
18.245427
 31
0.0
  0
LINE
  5
14c
100
AcDbEntity
  8
0
 62
7
100
AcDbLine
 10
55.108885
 20
18.245427
 30
0.0
 11
54.852154
 21
18.676063
 31
0.0
  0
LINE
  5
14d
100
AcDbEntity
  8
0
 62
7
100
AcDbLine
 10
54.852154
 20
18.676063
 30
0.0
 11
54.539989
 21
18.150787
 31
0.0
  0
LINE
  5
14e
100
AcDbEntity
  8
0
 62
7
100
AcDbLine
 10
54.539989
 20
18.150787
 30
0.0
 11
54.175667
 21
17.083539
 31
0.0
  0
LINE
  5
14f
100
AcDbEntity
  8
0
 62
7
100
AcDbLine
 10
54.175667
 20
17.083539
 30
0.0
 11
53.831271
 21
16.048774
 31
0.0
  0
LINE
  5
150
100
AcDbEntity
  8
0
 62
7
100
AcDbLine
 10
53.831271
 20
16.048774
 30
0.0
 11
53.578887
 21
15.620946
 31
0.0
  0
LINE
  5
151
100
AcDbEntity
  8
0
 62
7
100
AcDbLine
 10
53.578887
 20
15.620946
 30
0.0
 11
53.477972
 21
16.416181
 31
0.0
  0
LINE
  5
152
100
AcDbEntity
  8
0
 62
7
100
AcDbLine
 10
53.477972
 20
16.416181
 30
0.0
 11
53.454721
 21
18.191957
 31
0.0
  0
LINE
  5
153
100
AcDbEntity
  8
0
 62
7
100
AcDbLine
 10
53.454721
 20
18.191957
 30
0.0
 11
53.381305
 21
20.234784
 31
0.0
  0
LINE
  5
154
100
AcDbEntity
  8
0
 62
7
100
AcDbLine
 10
53.381305
 20
20.234784
 30
0.0
 11
53.129895
 21
21.831171
 31
0.0
  0
LINE
  5
155
100
AcDbEntity
  8
0
 62
7
100
AcDbLine
 10
53.129895
 20
21.831171
 30
0.0
 11
52.578234
 21
23.083755
 31
0.0
  0
LINE
  5
156
100
AcDbEntity
  8
0
 62
7
100
AcDbLine
 10
52.578234
 20
23.083755
 30
0.0
 11
51.849309
 21
24.349266
 31
0.0
  0
LINE
  5
157
100
AcDbEntity
  8
0
 62
7
100
AcDbLine
 10
51.849309
 20
24.349266
 30
0.0
 11
51.183117
 21
25.295318
 31
0.0
  0
LINE
  5
158
100
AcDbEntity
  8
0
 62
7
100
AcDbLine
 10
51.183117
 20
25.295318
 30
0.0
 11
50.819656
 21
25.589525
 31
0.0
  0
LINE
  5
159
100
AcDbEntity
  8
0
 62
7
100
AcDbLine
 10
50.819656
 20
25.589525
 30
0.0
 11
50.511757
 21
23.466350
 31
0.0
  0
LINE
  5
15a
100
AcDbEntity
  8
0
 62
7
100
AcDbLine
 10
50.511757
 20
23.466350
 30
0.0
 11
50.107325
 21
20.268840
 31
0.0
  0
LINE
  5
15b
100
AcDbEntity
  8
0
 62
7
100
AcDbLine
 10
50.107325
 20
20.268840
 30
0.0
 11
49.495550
 21
22.659446
 31
0.0
  0
LINE
  5
15c
100
AcDbEntity
  8
0
 62
7
100
AcDbLine
 10
49.495550
 20
22.659446
 30
0.0
 11
48.686569
 21
24.899113
 31
0.0
  0
LINE
  5
15d
100
AcDbEntity
  8
0
 62
7
100
AcDbLine
 10
48.686569
 20
24.899113
 30
0.0
 11
47.427949
 21
27.191809
 31
0.0
  0
LINE
  5
15e
100
AcDbEntity
  8
0
 62
7
100
AcDbLine
 10
47.427949
 20
27.191809
 30
0.0
 11
45.951075
 21
29.243164
 31
0.0
  0
LINE
  5
15f
100
AcDbEntity
  8
0
 62
7
100
AcDbLine
 10
45.951075
 20
29.243164
 30
0.0
 11
44.487333
 21
30.758805
 31
0.0
  0
LINE
  5
160
100
AcDbEntity
  8
0
 62
7
100
AcDbLine
 10
44.487333
 20
30.758805
 30
0.0
 11
41.000612
 21
33.488625
 31
0.0
  0
LINE
  5
161
100
AcDbEntity
  8
0
 62
7
100
AcDbLine
 10
41.000612
 20
33.488625
 30
0.0
 11
38.592518
 21
35.158612
 31
0.0
  0
LINE
  5
162
100
AcDbEntity
  8
0
 62
7
100
AcDbLine
 10
38.592518
 20
35.158612
 30
0.0
 11
35.669261
 21
36.982143
 31
0.0
  0
LINE
  5
163
100
AcDbEntity
  8
0
 62
7
100
AcDbLine
 10
35.669261
 20
36.982143
 30
0.0
 11
32.176833
 21
38.921838
 31
0.0
  0
LINE
  5
164
100
AcDbEntity
  8
0
 62
7
100
AcDbLine
 10
32.176833
 20
38.921838
 30
0.0
 11
28.061228
 21
40.940317
 31
0.0
  0
LINE
  5
165
100
AcDbEntity
  8
0
 62
7
100
AcDbLine
 10
28.061228
 20
40.940317
 30
0.0
 11
23.268440
 21
43.000198
 31
0.0
  0
LINE
  5
166
100
AcDbEntity
  8
0
 62
7
100
AcDbLine
 10
23.268440
 20
43.000198
 30
0.0
 11
17.744462
 21
45.064102
 31
0.0
  0
LINE
  5
167
100
AcDbEntity
  8
0
 62
7
100
AcDbLine
 10
17.744462
 20
45.064102
 30
0.0
 11
14.013785
 21
46.212037
 31
0.0
  0
LINE
  5
168
100
AcDbEntity
  8
0
 62
7
100
AcDbLine
 10
14.013785
 20
46.212037
 30
0.0
 11
10.410262
 21
47.046835
 31
0.0
  0
LINE
  5
169
100
AcDbEntity
  8
0
 62
7
100
AcDbLine
 10
10.410262
 20
47.046835
 30
0.0
 11
6.969084
 21
47.600970
 31
0.0
  0
LINE
  5
16a
100
AcDbEntity
  8
0
 62
7
100
AcDbLine
 10
6.969084
 20
47.600970
 30
0.0
 11
3.725438
 21
47.906916
 31
0.0
  0
LINE
  5
16b
100
AcDbEntity
  8
0
 62
7
100
AcDbLine
 10
3.725438
 20
47.906916
 30
0.0
 11
0.714513
 21
47.997148
 31
0.0
  0
LINE
  5
16c
100
AcDbEntity
  8
0
 62
7
100
AcDbLine
 10
0.714513
 20
47.997148
 30
0.0
 11
-2.028501
 21
47.904140
 31
0.0
  0
LINE
  5
16d
100
AcDbEntity
  8
0
 62
7
100
AcDbLine
 10
-2.028501
 20
47.904140
 30
0.0
 11
-4.468416
 21
47.660365
 31
0.0
  0
LINE
  5
16e
100
AcDbEntity
  8
0
 62
7
100
AcDbLine
 10
-4.468416
 20
47.660365
 30
0.0
 11
-6.570044
 21
47.298299
 31
0.0
  0
LINE
  5
16f
100
AcDbEntity
  8
0
 62
7
100
AcDbLine
 10
-6.570044
 20
47.298299
 30
0.0
 11
-6.570044
 21
47.298299
 31
0.0
  0
ENDSEC
  0
SECTION
  2
OBJECTS
  0
DICTIONARY
  5
C
330
0
100
AcDbDictionary
  3
ACAD_GROUP
350
D
  3
ACAD_MLINESTYLE
350
17
  0
DICTIONARY
  5
D
330
C
100
AcDbDictionary
  0
DICTIONARY
  5
1A
330
C
100
AcDbDictionary
  0
DICTIONARY
  5
17
330
C
100
AcDbDictionary
  3
STANDARD
350
18
  0
DICTIONARY
  5
19
330
C
100
AcDbDictionary
  0
ENDSEC
  0
EOF
