<?xml version="1.0" encoding="UTF-8" standalone="no"?>
<!-- License: Apache. Made by googlefonts: https://github.com/googlefonts/noto-emoji -->

<svg
   width="50mm"
   height="50mm"
   viewBox="0 0 30.23622 30.23622"
   aria-hidden="true"
   role="img"
   class="iconify iconify--noto"
   preserveAspectRatio="xMidYMid"
   version="1.1"
   id="svg23"
   sodipodi:docname="feather.svg"
   inkscape:version="1.3.2 (091e20ef0f, 2023-11-25)"
   xmlns:inkscape="http://www.inkscape.org/namespaces/inkscape"
   xmlns:sodipodi="http://sodipodi.sourceforge.net/DTD/sodipodi-0.dtd"
   xmlns="http://www.w3.org/2000/svg"
   xmlns:svg="http://www.w3.org/2000/svg">
  <defs
     id="defs23" />
  <sodipodi:namedview
     id="namedview23"
     pagecolor="#505050"
     bordercolor="#ffffff"
     borderopacity="1"
     inkscape:showpageshadow="0"
     inkscape:pageopacity="0"
     inkscape:pagecheckerboard="1"
     inkscape:deskcolor="#d1d1d1"
     showgrid="false"
     inkscape:zoom="2.0875"
     inkscape:cx="106.10778"
     inkscape:cy="150.65868"
     inkscape:window-width="1920"
     inkscape:window-height="1036"
     inkscape:window-x="0"
     inkscape:window-y="0"
     inkscape:window-maximized="1"
     inkscape:current-layer="svg23"
     inkscape:document-units="mm" />
  <radialGradient
     id="IconifyId17ecdb2904d178eab8620"
     cx="103.941"
     cy="92.426003"
     r="21.627001"
     gradientUnits="userSpaceOnUse">
    <stop
       offset="0"
       stop-color="#ffffff"
       id="stop1" />
    <stop
       offset=".096"
       stop-color="#fef8ef"
       id="stop2" />
    <stop
       offset=".272"
       stop-color="#fdeed9"
       id="stop3" />
    <stop
       offset=".463"
       stop-color="#fde7c9"
       id="stop4" />
    <stop
       offset=".678"
       stop-color="#fce3bf"
       id="stop5" />
    <stop
       offset=".965"
       stop-color="#fce2bc"
       id="stop6" />
  </radialGradient>
  <path
     id="path6"
     style="opacity:1;vector-effect:non-scaling-stroke;fill:none;fill-opacity:1;stroke:#000000;stroke-width:0.16;stroke-dasharray:none;stroke-opacity:1;-inkscape-stroke:hairline"
     d="m -3.9730657,1.6337844 c -1.4079232,0.3007734 -2.3180451,0.7160061 -2.5599753,1.0881671 -0.3782601,0.5790241 -0.4191703,1.4601895 0.175943,3.1304553 0.4558756,1.2759428 1.5563483,3.0038071 3.1135954,3.8944305 0.3953059,0.2244064 1.1979682,0.4437337 2.0911845,0.5615487 1.32479072,0.17394 2.2557602,-0.03008 2.3368016,0.307966 0.081044,0.338066 -0.75088106,0.808788 -1.62941839,0.885343 -0.88155211,0.07729 -1.85372281,-0.05034 -1.85372281,-0.05034 l 2.7160601,1.956565 c 0,0 1.2346361,-0.388556 1.937346,-0.732548 0.6626239,-0.324832 1.534342,-1.09555 1.7945355,-0.755771 0.2609073,0.342816 -0.3918638,0.895079 -0.9993519,1.356697 -0.6074902,0.46161 -1.5201549,0.875116 -1.5201549,0.875116 0,0 6.086354,2.9009 7.8347286,4.189365 1.7483773,1.288464 7.4958363,5.212186 8.9110983,5.683619 1.414537,0.468412 2.544141,1.053012 4.743417,0.481098 0.146889,-0.03825 0.417897,-0.102205 0.597187,-0.147204 -0.945546,0.945834 -1.759402,1.881326 -1.679157,2.104563 0.13432,0.37316 4.372082,-0.508704 5.62555,-0.898578 1.253466,-0.389878 2.276412,-0.995755 2.276412,-0.995755 0,0 -1.713034,1.668229 -1.567022,1.904524 0.146033,0.2363 1.622186,0.01648 2.600121,-0.217961 0.879751,-0.213807 1.66075,-0.680607 1.810819,-0.773133 1.069127,1.44819 2.357925,3.192868 2.537269,3.439617 0.321619,0.449546 1.408876,0.897472 1.802148,0.634034 0.278076,-0.184774 0.156984,-0.663225 0.07015,-1.025423 -0.04002,-0.166936 -1.626855,-2.343565 -3.803694,-5.010201 0.164184,-0.681564 0.295444,-1.38406 0.264565,-1.817609 -0.07555,-1.060707 -0.268611,-2.811399 -0.482933,-2.760021 -0.211298,0.05064 -0.622946,1.901627 -0.769976,1.847504 -0.147033,-0.05413 0.03731,-2.840054 -0.271516,-3.755475 -0.308837,-0.915412 -1.290549,-2.387674 -1.397058,-2.272768 -0.09403,0.101424 -0.2589,2.249889 -0.430764,3.217548 C 30.176286,17.490041 30.012216,16.871582 29.931167,16.5335 29.522346,14.828154 28.015307,12.562591 26.902576,11.63562 24.718776,9.8228265 20.257055,6.2962558 10.730509,2.984858 4.6308154,0.86376221 -0.87566163,0.97199425 -3.9730657,1.6337844 Z" />
  <linearGradient
     id="IconifyId17ecdb2904d178eab8621"
     gradientUnits="userSpaceOnUse"
     x1="53.414001"
     y1="39.563"
     x2="100.99"
     y2="100.061">
    <stop
       offset="0"
       stop-color="#ae7237"
       id="stop7" />
    <stop
       offset=".208"
       stop-color="#b0753a"
       id="stop8" />
    <stop
       offset=".373"
       stop-color="#b67d44"
       id="stop9" />
    <stop
       offset=".523"
       stop-color="#bf8b55"
       id="stop10" />
    <stop
       offset=".664"
       stop-color="#cd9f6c"
       id="stop11" />
    <stop
       offset=".799"
       stop-color="#dfb98b"
       id="stop12" />
    <stop
       offset=".927"
       stop-color="#f5d8b0"
       id="stop13" />
    <stop
       offset=".965"
       stop-color="#fce2bc"
       id="stop14" />
  </linearGradient>
  <linearGradient
     id="IconifyId17ecdb2904d178eab8622"
     gradientUnits="userSpaceOnUse"
     x1="109.766"
     y1="118.466"
     x2="47.973"
     y2="31.504999">
    <stop
       offset=".074"
       stop-color="#cecece"
       id="stop18" />
    <stop
       offset=".285"
       stop-color="#a69c99"
       id="stop19" />
    <stop
       offset=".497"
       stop-color="#84706b"
       id="stop20" />
    <stop
       offset=".686"
       stop-color="#6b504a"
       id="stop21" />
    <stop
       offset=".842"
       stop-color="#5c3d35"
       id="stop22" />
    <stop
       offset=".946"
       stop-color="#56362e"
       id="stop23" />
  </linearGradient>
</svg>
